INDEX VERSION 1.131+C:\Users\XSIS Bootcamp\Documents\Workspace_Spring\.metadata\.plugins\org.eclipse.jdt.core
4260335841.index
2633109310.index
4122707006.index
1339095306.index
3758126076.index
612861196.index
751057830.index
3827488877.index
1400180666.index
2094121474.index
2705752669.index
260532419.index
1426758644.index
3572062632.index
3922809459.index
1020482640.index
2462402432.index
1734268673.index
1855071255.index
3413158862.index
2694631190.index
723994681.index
1142269292.index
2036137488.index
2720759682.index
937068037.index
346727165.index
369832531.index
3704198244.index
2089935157.index
1317563330.index
1879601466.index
91814631.index
2234388666.index
3913302043.index
3967693480.index
2679459758.index
2466968279.index
2855580333.index
1896594164.index
2627536119.index
3832975810.index
3260537324.index
2468582186.index
3215778566.index
363002026.index
1749554649.index
211846554.index
3493211400.index
602346635.index
3724523416.index
1011945979.index
2135844365.index
1314769227.index
3700858135.index
3713972520.index
1213295940.index
3757117468.index
1809311507.index
3157783494.index
2558275599.index
3193633717.index
1661230902.index
1691388129.index
1186400192.index
2814327187.index
1959802123.index
3232658646.index
3911277368.index
4040077021.index
1205933178.index
2985114079.index
3043420114.index
331579870.index
3167658094.index
2529630446.index
145650822.index
1782062165.index
2185142767.index
327742331.index
4247926877.index
2134961676.index
2195559317.index
1270806092.index
2146668283.index
2744167680.index
2619816942.index
2362658478.index
2247934075.index
2416738264.index
2158998175.index
3524785511.index
547520920.index
3806310953.index
2149291900.index
2279997976.index
1680100219.index
